%YAML 1.1
%TAG !u! tag:unity3d.com,2011:
--- !u!1045 &1
EditorBuildSettings:
  m_ObjectHideFlags: 0
  serializedVersion: 2
  m_Scenes:
  - enabled: 0
    path: 
    guid: 00000000000000000000000000000000
  - enabled: 1
    path: Assets/Scenes/TitleScreen.unity
    guid: f0d9ba2e2f1e01143b808cff3dd8ef09
  - enabled: 1
    path: Assets/Scenes/GameScreen.unity
    guid: 91d493cec72d22d4e91da32bcda1496e
  - enabled: 0
    path: 
    guid: 00000000000000000000000000000000
  - enabled: 1
    path: Assets/Scenes/GameOverScene.unity
    guid: b1c1d8387006b0d468aa5cc332bab6fa
  m_configObjects: {}
